<?xml version="1.0" encoding="UTF-8"?>
<robot generator="Robot 7.0 (Python 3.12.1 on win32)" generated="2024-01-21T11:14:54.473202" rpa="false" schemaversion="5">
<suite id="s1" name="RobotFrameWork API" source="C:\Users\andis\PycharmProjects\RobotFrameWork_API">
<suite id="s1-s1" name="API Test" source="C:\Users\andis\PycharmProjects\RobotFrameWork_API\API_Test">
<suite id="s1-s1-s1" name="Test" source="C:\Users\andis\PycharmProjects\RobotFrameWork_API\API_Test\test.robot">
<test id="s1-s1-s1-t1" name="Get User List" line="17">
<kw name="Create Session" owner="RequestsLibrary">
<msg time="2024-01-21T11:14:54.551154" level="INFO">Creating Session using : alias=my_session, url=https://reqres.in/api, headers={},                     cookies={}, auth=None, timeout=None, proxies=None, verify=False,                     debug=0 </msg>
<arg>my_session</arg>
<arg>${BASE_URL}</arg>
<doc>Create Session: create a HTTP session to a server</doc>
<status status="PASS" start="2024-01-21T11:14:54.551154" elapsed="0.000000"/>
</kw>
<kw name="GET On Session" owner="RequestsLibrary">
<msg time="2024-01-21T11:14:54.935979" level="INFO">GET Request : url=https://reqres.in/api/users 
 path_url=/api/users 
 headers={'User-Agent': 'python-requests/2.31.0', 'Accept-Encoding': 'gzip, deflate', 'Accept': '*/*', 'Connection': 'keep-alive'} 
 body=None 
 </msg>
<msg time="2024-01-21T11:14:54.937081" level="INFO">GET Response : url=https://reqres.in/api/users 
 status=200, reason=OK 
 headers={'Date': 'Sun, 21 Jan 2024 04:16:31 GMT', 'Content-Type': 'application/json; charset=utf-8', 'Transfer-Encoding': 'chunked', 'Connection': 'keep-alive', 'Report-To': '{"group":"heroku-nel","max_age":3600,"endpoints":[{"url":"https://nel.heroku.com/reports?ts=1705556669&amp;sid=c4c9725f-1ab0-44d8-820f-430df2718e11&amp;s=YDjy1Jv1YZ0n%2BVKviKoiei94ChqFqntebIh0UUZ0jp0%3D"}]}', 'Reporting-Endpoints': 'heroku-nel=https://nel.heroku.com/reports?ts=1705556669&amp;sid=c4c9725f-1ab0-44d8-820f-430df2718e11&amp;s=YDjy1Jv1YZ0n%2BVKviKoiei94ChqFqntebIh0UUZ0jp0%3D', 'Nel': '{"report_to":"heroku-nel","max_age":3600,"success_fraction":0.005,"failure_fraction":0.05,"response_headers":["Via"]}', 'X-Powered-By': 'Express', 'Access-Control-Allow-Origin': '*', 'Etag': 'W/"3e4-2RLXvr5wTg9YQ6aH95CkYoFNuO8"', 'Via': '1.1 vegur', 'Cache-Control': 'max-age=14400', 'CF-Cache-Status': 'HIT', 'Age': '902', 'Vary': 'Accept-Encoding', 'Server': 'cloudflare', 'CF-RAY': '848cbe023de00455-HKG', 'Content-Encoding': 'gzip'} 
 body={"page":1,"per_page":6,"total":12,"total_pages":2,"data":[{"id":1,"email":"george.bluth@reqres.in","first_name":"George","last_name":"Bluth","avatar":"https://reqres.in/img/faces/1-image.jpg"},{"id":2,"email":"janet.weaver@reqres.in","first_name":"Janet","last_name":"Weaver","avatar":"https://reqres.in/img/faces/2-image.jpg"},{"id":3,"email":"emma.wong@reqres.in","first_name":"Emma","last_name":"Wong","avatar":"https://reqres.in/img/faces/3-image.jpg"},{"id":4,"email":"eve.holt@reqres.in","first_name":"Eve","last_name":"Holt","avatar":"https://reqres.in/img/faces/4-image.jpg"},{"id":5,"email":"charles.morris@reqres.in","first_name":"Charles","last_name":"Morris","avatar":"https://reqres.in/img/faces/5-image.jpg"},{"id":6,"email":"tracey.ramos@reqres.in","first_name":"Tracey","last_name":"Ramos","avatar":"https://reqres.in/img/faces/6-image.jpg"}],"support":{"url":"https://reqres.in/#support-heading","text":"To keep ReqRes free, contributions towards server costs are appreciated!"}} 
 </msg>
<msg time="2024-01-21T11:14:54.937081" level="INFO">C:\Users\andis\PycharmProjects\RobotFrameWork_API\.venv\Lib\site-packages\urllib3\connectionpool.py:1099: InsecureRequestWarning: Unverified HTTPS request is being made to host 'reqres.in'. Adding certificate verification is strongly advised. See: https://urllib3.readthedocs.io/en/latest/advanced-usage.html#tls-warnings
  warnings.warn(</msg>
<msg time="2024-01-21T11:14:54.938167" level="INFO">${response} = &lt;Response [200]&gt;</msg>
<var>${response}</var>
<arg>my_session</arg>
<arg>/users</arg>
<doc>Sends a GET request on a previously created HTTP Session.</doc>
<status status="PASS" start="2024-01-21T11:14:54.551154" elapsed="0.387013"/>
</kw>
<kw name="Log" owner="BuiltIn">
<msg time="2024-01-21T11:14:54.940248" level="INFO">200</msg>
<arg>${response.status_code}</arg>
<doc>Logs the given message with the given level.</doc>
<status status="PASS" start="2024-01-21T11:14:54.939196" elapsed="0.001052"/>
</kw>
<kw name="Log" owner="BuiltIn">
<msg time="2024-01-21T11:14:54.941288" level="INFO">{"page":1,"per_page":6,"total":12,"total_pages":2,"data":[{"id":1,"email":"george.bluth@reqres.in","first_name":"George","last_name":"Bluth","avatar":"https://reqres.in/img/faces/1-image.jpg"},{"id":2,"email":"janet.weaver@reqres.in","first_name":"Janet","last_name":"Weaver","avatar":"https://reqres.in/img/faces/2-image.jpg"},{"id":3,"email":"emma.wong@reqres.in","first_name":"Emma","last_name":"Wong","avatar":"https://reqres.in/img/faces/3-image.jpg"},{"id":4,"email":"eve.holt@reqres.in","first_name":"Eve","last_name":"Holt","avatar":"https://reqres.in/img/faces/4-image.jpg"},{"id":5,"email":"charles.morris@reqres.in","first_name":"Charles","last_name":"Morris","avatar":"https://reqres.in/img/faces/5-image.jpg"},{"id":6,"email":"tracey.ramos@reqres.in","first_name":"Tracey","last_name":"Ramos","avatar":"https://reqres.in/img/faces/6-image.jpg"}],"support":{"url":"https://reqres.in/#support-heading","text":"To keep ReqRes free, contributions towards server costs are appreciated!"}}</msg>
<arg>${response.content}</arg>
<doc>Logs the given message with the given level.</doc>
<status status="PASS" start="2024-01-21T11:14:54.940248" elapsed="0.001040"/>
</kw>
<kw name="Log" owner="BuiltIn">
<msg time="2024-01-21T11:14:54.942316" level="INFO">"Andi Suryo Laksono"</msg>
<arg>"Andi Suryo Laksono"</arg>
<doc>Logs the given message with the given level.</doc>
<status status="PASS" start="2024-01-21T11:14:54.942316" elapsed="0.000000"/>
</kw>
<kw name="Should Be Equal As Numbers" owner="BuiltIn">
<msg time="2024-01-21T11:14:54.943361" level="INFO">Argument types are:
&lt;class 'int'&gt;
&lt;class 'str'&gt;</msg>
<arg>${response.status_code}</arg>
<arg>200</arg>
<doc>Fails if objects are unequal after converting them to real numbers.</doc>
<status status="PASS" start="2024-01-21T11:14:54.942316" elapsed="0.001045"/>
</kw>
<status status="PASS" start="2024-01-21T11:14:54.551154" elapsed="0.392207"/>
</test>
<test id="s1-s1-s1-t2" name="Positive Case" line="26">
<kw name="Create Dictionary" owner="BuiltIn">
<msg time="2024-01-21T11:14:54.945475" level="INFO">&amp;{req_body} = { name=andi | job=software Quality Assurance }</msg>
<var>&amp;{req_body}</var>
<arg>name=andi</arg>
<arg>job=software Quality Assurance</arg>
<doc>Creates and returns a dictionary based on the given ``items``.</doc>
<status status="PASS" start="2024-01-21T11:14:54.944457" elapsed="0.001018"/>
</kw>
<kw name="POST" owner="RequestsLibrary">
<msg time="2024-01-21T11:14:55.891683" level="INFO">POST Request : url=https://reqres.in/api/users 
 path_url=/api/users 
 headers={'User-Agent': 'python-requests/2.31.0', 'Accept-Encoding': 'gzip, deflate', 'Accept': '*/*', 'Connection': 'keep-alive', 'Content-Length': '53', 'Content-Type': 'application/json'} 
 body=b'{"name": "andi", "job": "software Quality Assurance"}' 
 </msg>
<msg time="2024-01-21T11:14:55.891683" level="INFO">POST Response : url=https://reqres.in/api/users 
 status=201, reason=Created 
 headers={'Date': 'Sun, 21 Jan 2024 04:16:32 GMT', 'Content-Type': 'application/json; charset=utf-8', 'Content-Length': '100', 'Connection': 'keep-alive', 'Report-To': '{"group":"heroku-nel","max_age":3600,"endpoints":[{"url":"https://nel.heroku.com/reports?ts=1705810591&amp;sid=c4c9725f-1ab0-44d8-820f-430df2718e11&amp;s=VsKU0vyIr1rlUPDvo5RvP3PIA3hMmD5h8D%2BxR%2FTA7Ks%3D"}]}', 'Reporting-Endpoints': 'heroku-nel=https://nel.heroku.com/reports?ts=1705810591&amp;sid=c4c9725f-1ab0-44d8-820f-430df2718e11&amp;s=VsKU0vyIr1rlUPDvo5RvP3PIA3hMmD5h8D%2BxR%2FTA7Ks%3D', 'Nel': '{"report_to":"heroku-nel","max_age":3600,"success_fraction":0.005,"failure_fraction":0.05,"response_headers":["Via"]}', 'X-Powered-By': 'Express', 'Access-Control-Allow-Origin': '*', 'Etag': 'W/"64-/dALHyB6bCcT4npFlP+wOSNTjIg"', 'Via': '1.1 vegur', 'CF-Cache-Status': 'DYNAMIC', 'Server': 'cloudflare', 'CF-RAY': '848cbe05ac7b0484-HKG'} 
 body={"name":"andi","job":"software Quality Assurance","id":"745","createdAt":"2024-01-21T04:16:31.931Z"} 
 </msg>
<msg time="2024-01-21T11:14:55.892872" level="INFO">${response} = &lt;Response [201]&gt;</msg>
<var>${response}</var>
<arg>${base_url}/users</arg>
<arg>json=${req_body}</arg>
<arg>expected_status=201</arg>
<doc>Sends a POST request.</doc>
<status status="PASS" start="2024-01-21T11:14:54.945475" elapsed="0.947397"/>
</kw>
<kw name="Log" owner="BuiltIn">
<msg time="2024-01-21T11:14:55.895028" level="INFO">{'name': 'andi', 'job': 'software Quality Assurance', 'id': '745', 'createdAt': '2024-01-21T04:16:31.931Z'}</msg>
<arg>${response.json()}</arg>
<doc>Logs the given message with the given level.</doc>
<status status="PASS" start="2024-01-21T11:14:55.893936" elapsed="0.001092"/>
</kw>
<kw name="Dictionary Should Contain Key" owner="Collections">
<msg time="2024-01-21T11:14:55.896083" level="INFO">False</msg>
<arg>${response.json()}</arg>
<arg>id</arg>
<doc>Fails if ``key`` is not found from ``dictionary``.</doc>
<status status="PASS" start="2024-01-21T11:14:55.895028" elapsed="0.001055"/>
</kw>
<kw name="Get From Dictionary" owner="Collections">
<msg time="2024-01-21T11:14:55.898248" level="INFO">${name} = andi</msg>
<var>${name}</var>
<arg>${response.json()}</arg>
<arg>name</arg>
<doc>Returns a value from the given ``dictionary`` based on the given ``key``.</doc>
<status status="PASS" start="2024-01-21T11:14:55.897141" elapsed="0.001107"/>
</kw>
<kw name="Should Be Equal As Strings" owner="BuiltIn">
<arg>${expectedname}</arg>
<arg>${name}</arg>
<doc>Fails if objects are unequal after converting them to strings.</doc>
<status status="PASS" start="2024-01-21T11:14:55.898248" elapsed="0.000000"/>
</kw>
<status status="PASS" start="2024-01-21T11:14:54.944457" elapsed="0.954817"/>
</test>
<test id="s1-s1-s1-t3" name="Negative Case: Missing Request Body Fields" line="36">
<kw name="Create Dictionary" owner="BuiltIn">
<msg time="2024-01-21T11:14:55.900318" level="INFO">&amp;{req_body} = { }</msg>
<var>&amp;{req_body}</var>
<doc>Creates and returns a dictionary based on the given ``items``.</doc>
<status status="PASS" start="2024-01-21T11:14:55.900318" elapsed="0.000000"/>
</kw>
<kw name="POST" owner="RequestsLibrary">
<msg time="2024-01-21T11:14:57.056489" level="INFO">POST Request : url=https://reqres.in/api/users 
 path_url=/api/users 
 headers={'User-Agent': 'python-requests/2.31.0', 'Accept-Encoding': 'gzip, deflate', 'Accept': '*/*', 'Connection': 'keep-alive', 'Content-Length': '2', 'Content-Type': 'application/json'} 
 body=b'{}' 
 </msg>
<msg time="2024-01-21T11:14:57.056489" level="INFO">POST Response : url=https://reqres.in/api/users 
 status=201, reason=Created 
 headers={'Date': 'Sun, 21 Jan 2024 04:16:32 GMT', 'Content-Type': 'application/json; charset=utf-8', 'Content-Length': '51', 'Connection': 'keep-alive', 'Report-To': '{"group":"heroku-nel","max_age":3600,"endpoints":[{"url":"https://nel.heroku.com/reports?ts=1705810592&amp;sid=c4c9725f-1ab0-44d8-820f-430df2718e11&amp;s=H9i3xk9YfOZ%2F7BqxdDoNUDKfflVGdWWTzaApnAlCydQ%3D"}]}', 'Reporting-Endpoints': 'heroku-nel=https://nel.heroku.com/reports?ts=1705810592&amp;sid=c4c9725f-1ab0-44d8-820f-430df2718e11&amp;s=H9i3xk9YfOZ%2F7BqxdDoNUDKfflVGdWWTzaApnAlCydQ%3D', 'Nel': '{"report_to":"heroku-nel","max_age":3600,"success_fraction":0.005,"failure_fraction":0.05,"response_headers":["Via"]}', 'X-Powered-By': 'Express', 'Access-Control-Allow-Origin': '*', 'Etag': 'W/"33-GZHUdfR5blMb8AuGbaNrVJn5e7U"', 'Via': '1.1 vegur', 'CF-Cache-Status': 'DYNAMIC', 'Server': 'cloudflare', 'CF-RAY': '848cbe0b8a52097c-HKG'} 
 body={"id":"696","createdAt":"2024-01-21T04:16:32.881Z"} 
 </msg>
<msg time="2024-01-21T11:14:57.056489" level="INFO">${response_fail} = &lt;Response [201]&gt;</msg>
<var>${response_fail}</var>
<arg>${base_url}/users</arg>
<arg>json=${req_body}</arg>
<arg>expected_status=201</arg>
<doc>Sends a POST request.</doc>
<status status="PASS" start="2024-01-21T11:14:55.901360" elapsed="1.155129"/>
</kw>
<kw name="Log" owner="BuiltIn">
<msg time="2024-01-21T11:14:57.058631" level="INFO">{'id': '696', 'createdAt': '2024-01-21T04:16:32.881Z'}</msg>
<arg>${response_fail.json()}</arg>
<doc>Logs the given message with the given level.</doc>
<status status="PASS" start="2024-01-21T11:14:57.057570" elapsed="0.001061"/>
</kw>
<kw name="Dictionary Should Contain Key" owner="Collections">
<msg time="2024-01-21T11:14:57.060795" level="INFO">False</msg>
<arg>${response_fail.json()}</arg>
<arg>id</arg>
<doc>Fails if ``key`` is not found from ``dictionary``.</doc>
<status status="PASS" start="2024-01-21T11:14:57.059735" elapsed="0.001060"/>
</kw>
<kw name="Dictionary Should Not Contain Key" owner="Collections">
<msg time="2024-01-21T11:14:57.061797" level="INFO">False</msg>
<arg>${response_fail.json()}</arg>
<arg>name</arg>
<doc>Fails if ``key`` is found from ``dictionary``.</doc>
<status status="PASS" start="2024-01-21T11:14:57.060795" elapsed="0.001002"/>
</kw>
<status status="PASS" start="2024-01-21T11:14:55.900318" elapsed="1.161479"/>
</test>
<test id="s1-s1-s1-t4" name="Negative Case: Missing Response" line="44">
<kw name="Create Dictionary" owner="BuiltIn">
<msg time="2024-01-21T11:14:57.063948" level="INFO">&amp;{req_body} = { name=andi | job=software Quality Assurance }</msg>
<var>&amp;{req_body}</var>
<arg>name=andi</arg>
<arg>job=software Quality Assurance</arg>
<doc>Creates and returns a dictionary based on the given ``items``.</doc>
<status status="PASS" start="2024-01-21T11:14:57.063948" elapsed="0.000000"/>
</kw>
<kw name="POST" owner="RequestsLibrary">
<msg time="2024-01-21T11:14:58.005885" level="INFO">POST Request : url=https://reqres.in/api/invalid-endpoint 
 path_url=/api/invalid-endpoint 
 headers={'User-Agent': 'python-requests/2.31.0', 'Accept-Encoding': 'gzip, deflate', 'Accept': '*/*', 'Connection': 'keep-alive', 'Content-Length': '53', 'Content-Type': 'application/json'} 
 body=b'{"name": "andi", "job": "software Quality Assurance"}' 
 </msg>
<msg time="2024-01-21T11:14:58.005885" level="INFO">POST Response : url=https://reqres.in/api/invalid-endpoint 
 status=201, reason=Created 
 headers={'Date': 'Sun, 21 Jan 2024 04:16:34 GMT', 'Content-Type': 'application/json; charset=utf-8', 'Content-Length': '100', 'Connection': 'keep-alive', 'Report-To': '{"group":"heroku-nel","max_age":3600,"endpoints":[{"url":"https://nel.heroku.com/reports?ts=1705810594&amp;sid=c4c9725f-1ab0-44d8-820f-430df2718e11&amp;s=n%2FO2l87P45Xx45%2FYejERqHSHc5u3mSKtagMMCnryqRI%3D"}]}', 'Reporting-Endpoints': 'heroku-nel=https://nel.heroku.com/reports?ts=1705810594&amp;sid=c4c9725f-1ab0-44d8-820f-430df2718e11&amp;s=n%2FO2l87P45Xx45%2FYejERqHSHc5u3mSKtagMMCnryqRI%3D', 'Nel': '{"report_to":"heroku-nel","max_age":3600,"success_fraction":0.005,"failure_fraction":0.05,"response_headers":["Via"]}', 'X-Powered-By': 'Express', 'Access-Control-Allow-Origin': '*', 'Etag': 'W/"64-I9nbmI0hqYaGV35i+UJ+XXdUYIY"', 'Via': '1.1 vegur', 'CF-Cache-Status': 'DYNAMIC', 'Server': 'cloudflare', 'CF-RAY': '848cbe129bc210a2-HKG'} 
 body={"name":"andi","job":"software Quality Assurance","id":"186","createdAt":"2024-01-21T04:16:34.007Z"} 
 </msg>
<msg time="2024-01-21T11:14:58.007033" level="FAIL">Url: https://reqres.in/api/invalid-endpoint Expected status: 201 != 400</msg>
<var>${response}</var>
<arg>${base_url}/invalid-endpoint</arg>
<arg>json=${req_body}</arg>
<arg>expected_status=400</arg>
<doc>Sends a POST request.</doc>
<status status="FAIL" start="2024-01-21T11:14:57.064972" elapsed="0.945235">Url: https://reqres.in/api/invalid-endpoint Expected status: 201 != 400</status>
</kw>
<kw name="Log" owner="BuiltIn">
<arg>${response.json()}</arg>
<doc>Logs the given message with the given level.</doc>
<status status="NOT RUN" start="2024-01-21T11:14:58.010207" elapsed="0.000000"/>
</kw>
<kw name="Dictionary Should Contain Key" owner="Collections">
<arg>${response.json()}</arg>
<arg>id</arg>
<doc>Fails if ``key`` is not found from ``dictionary``.</doc>
<status status="NOT RUN" start="2024-01-21T11:14:58.010207" elapsed="0.000000"/>
</kw>
<kw name="Get From Dictionary" owner="Collections">
<var>${name}</var>
<arg>${response.json()}</arg>
<arg>name</arg>
<doc>Returns a value from the given ``dictionary`` based on the given ``key``.</doc>
<status status="NOT RUN" start="2024-01-21T11:14:58.011257" elapsed="0.000000"/>
</kw>
<kw name="Should Be Equal As Strings" owner="BuiltIn">
<arg>${expectedname}</arg>
<arg>${name}</arg>
<doc>Fails if objects are unequal after converting them to strings.</doc>
<status status="NOT RUN" start="2024-01-21T11:14:58.011257" elapsed="0.000000"/>
</kw>
<status status="FAIL" start="2024-01-21T11:14:57.063948" elapsed="0.947309">Url: https://reqres.in/api/invalid-endpoint Expected status: 201 != 400</status>
</test>
<test id="s1-s1-s1-t5" name="Negative Case: Response Not Equals with Request" line="55">
<kw name="Create Dictionary" owner="BuiltIn">
<msg time="2024-01-21T11:14:58.013334" level="INFO">&amp;{req_body} = { name=joko | job=software Quality Assurance }</msg>
<var>&amp;{req_body}</var>
<arg>name=joko</arg>
<arg>job=software Quality Assurance</arg>
<doc>Creates and returns a dictionary based on the given ``items``.</doc>
<status status="PASS" start="2024-01-21T11:14:58.013334" elapsed="0.000000"/>
</kw>
<kw name="POST" owner="RequestsLibrary">
<msg time="2024-01-21T11:14:58.974545" level="INFO">POST Request : url=https://reqres.in/api/invalid-endpoint 
 path_url=/api/invalid-endpoint 
 headers={'User-Agent': 'python-requests/2.31.0', 'Accept-Encoding': 'gzip, deflate', 'Accept': '*/*', 'Connection': 'keep-alive', 'Content-Length': '53', 'Content-Type': 'application/json'} 
 body=b'{"name": "joko", "job": "software Quality Assurance"}' 
 </msg>
<msg time="2024-01-21T11:14:58.974545" level="INFO">POST Response : url=https://reqres.in/api/invalid-endpoint 
 status=201, reason=Created 
 headers={'Date': 'Sun, 21 Jan 2024 04:16:35 GMT', 'Content-Type': 'application/json; charset=utf-8', 'Content-Length': '100', 'Connection': 'keep-alive', 'Report-To': '{"group":"heroku-nel","max_age":3600,"endpoints":[{"url":"https://nel.heroku.com/reports?ts=1705810594&amp;sid=c4c9725f-1ab0-44d8-820f-430df2718e11&amp;s=n%2FO2l87P45Xx45%2FYejERqHSHc5u3mSKtagMMCnryqRI%3D"}]}', 'Reporting-Endpoints': 'heroku-nel=https://nel.heroku.com/reports?ts=1705810594&amp;sid=c4c9725f-1ab0-44d8-820f-430df2718e11&amp;s=n%2FO2l87P45Xx45%2FYejERqHSHc5u3mSKtagMMCnryqRI%3D', 'Nel': '{"report_to":"heroku-nel","max_age":3600,"success_fraction":0.005,"failure_fraction":0.05,"response_headers":["Via"]}', 'X-Powered-By': 'Express', 'Access-Control-Allow-Origin': '*', 'Etag': 'W/"64-j7wlOSTMl18XALBzKEM/jZ8lujQ"', 'Via': '1.1 vegur', 'CF-Cache-Status': 'DYNAMIC', 'Server': 'cloudflare', 'CF-RAY': '848cbe18984804fe-HKG'} 
 body={"name":"joko","job":"software Quality Assurance","id":"904","createdAt":"2024-01-21T04:16:34.986Z"} 
 </msg>
<msg time="2024-01-21T11:14:58.977741" level="INFO">${response} = &lt;Response [201]&gt;</msg>
<var>${response}</var>
<arg>${base_url}/invalid-endpoint</arg>
<arg>json=${req_body}</arg>
<arg>expected_status=201</arg>
<doc>Sends a POST request.</doc>
<status status="PASS" start="2024-01-21T11:14:58.013334" elapsed="0.964407"/>
</kw>
<kw name="Log" owner="BuiltIn">
<msg time="2024-01-21T11:14:58.978863" level="INFO">{'name': 'joko', 'job': 'software Quality Assurance', 'id': '904', 'createdAt': '2024-01-21T04:16:34.986Z'}</msg>
<arg>${response.json()}</arg>
<doc>Logs the given message with the given level.</doc>
<status status="PASS" start="2024-01-21T11:14:58.977741" elapsed="0.001122"/>
</kw>
<kw name="Dictionary Should Contain Key" owner="Collections">
<msg time="2024-01-21T11:14:58.980932" level="INFO">False</msg>
<arg>${response.json()}</arg>
<arg>id</arg>
<doc>Fails if ``key`` is not found from ``dictionary``.</doc>
<status status="PASS" start="2024-01-21T11:14:58.979929" elapsed="0.001003"/>
</kw>
<kw name="Get From Dictionary" owner="Collections">
<msg time="2024-01-21T11:14:58.982040" level="INFO">${name} = joko</msg>
<var>${name}</var>
<arg>${response.json()}</arg>
<arg>name</arg>
<doc>Returns a value from the given ``dictionary`` based on the given ``key``.</doc>
<status status="PASS" start="2024-01-21T11:14:58.980932" elapsed="0.001108"/>
</kw>
<kw name="Should Not Be Equal As Strings" owner="BuiltIn">
<arg>${expectedname}</arg>
<arg>${name}</arg>
<doc>Fails if objects are equal after converting them to strings.</doc>
<status status="PASS" start="2024-01-21T11:14:58.982040" elapsed="0.000000"/>
</kw>
<status status="PASS" start="2024-01-21T11:14:58.012300" elapsed="0.970763"/>
</test>
<doc>Robot Framework API Automation</doc>
<status status="FAIL" start="2024-01-21T11:14:54.488657" elapsed="4.495450"/>
</suite>
<status status="FAIL" start="2024-01-21T11:14:54.487609" elapsed="4.497534"/>
</suite>
<status status="FAIL" start="2024-01-21T11:14:54.474226" elapsed="4.513060"/>
</suite>
<statistics>
<total>
<stat pass="4" fail="1" skip="0">All Tests</stat>
</total>
<tag>
</tag>
<suite>
<stat pass="4" fail="1" skip="0" id="s1" name="RobotFrameWork API">RobotFrameWork API</stat>
<stat pass="4" fail="1" skip="0" id="s1-s1" name="API Test">RobotFrameWork API.API Test</stat>
<stat pass="4" fail="1" skip="0" id="s1-s1-s1" name="Test">RobotFrameWork API.API Test.Test</stat>
</suite>
</statistics>
<errors>
</errors>
</robot>
